com/company/mail/model/Message.class
com/company/mail/facade/MessageFacade.class
com/company/mail/service/MessageRestController.class
com/company/mail/service/ApplicationConfig.class
com/company/mail/facade/AbstractFacade.class
